<svg xmlns="http://www.w3.org/2000/svg" width="1080" height="1080" viewBox="0 0 2160 2160">
<path d="M0 0h2160v2160H0z" fill="#304550"/>
<path d="M1067 1542c14-2 21-4 33-9 11-5 19-12 24-21 5-6 18-33 22-42 6-15 9-38 7-52-3-21-20-45-44-63-11-9-32-21-40-24-10-3-21-3-36 0-19 5-36 13-57 28-18 14-33 32-37 46-8 24 0 69 16 96 9 16 22 30 30 34 16 8 49 11 82 7z" fill="#ff6b6b"/>
<path d="M1012 1531c-10-2-20-4-23-6s-15-15-20-23c-8-13-16-34-20-52-2-10-2-34 0-41 3-10 16-27 30-37 28-21 51-31 73-31 10 0 11 0 19 4 17 8 32 18 45 31 9 8 15 17 21 30l4 9v15c0 21-2 29-15 55l-13 24c-7 9-25 18-41 21-10 1-51 2-60 1z" fill="#304550"/>
<path fill="#c90" d="M635 1227a95 95 0 0064-110c-2-13-3-17-11-35-9-20-14-27-29-42a71 71 0 00-21-16l-15-7h-10l-4 3 1 2 3 2 6 3c5 2 14 6 21 11s21 20 27 29c5 7 16 30 18 38 4 14 5 39 1 54-5 20-17 36-33 47a79 79 0 01-65 11c-23-4-44-19-54-38-6-12-7-19-7-33 0-24 10-56 25-79 7-11 27-30 39-37a153 153 0 0021-16c-1-2-17 1-23 4-12 6-39 30-48 44a196 196 0 00-26 84c0 15 0 16 4 25a87 87 0 0059 56c10 3 17 4 33 3 13 0 15 0 24-3z"/>
<path d="M1564 1169c14-1 31-7 44-13 8-5 31-21 38-28 3-2 6-7 8-12 5-7 5-8 5-18 0-8-1-12-4-23a148 148 0 00-28-62 103 103 0 00-71-47c-3 0-5-1-8-3l-4-2-9 7a169 169 0 00-75 101c-3 10-3 13-4 29 0 16 0 18 2 26 4 17 10 24 22 31a149 149 0 0084 14z" fill="#7261a3"/>
<path d="M1535 1157l-36-8c-8-3-18-8-20-11-3-3-6-9-8-17-2-7-2-32 0-43 4-18 12-37 21-51 6-9 24-28 31-34l17-13c12-8 11-8 21-3 8 3 27 15 34 21a145 145 0 0150 100c0 6 0 8-3 13s-5 8-13 14c-12 10-20 15-27 19a165 165 0 01-67 13z" fill="#304550"/>
<path fill="#4ecdc4" d="M1202 751c3 25 12 42 28 53l16 9c20 9 41 12 69 8 26-3 33-6 46-19 14-14 22-29 26-50 2-9 2-13 2-27-1-29-7-44-21-60-13-14-22-17-51-22-23-3-49-3-59-1-15 4-26 12-26 17 0 3 1 3 3 3l11-4c12-6 18-7 39-7 19 1 45 4 56 8 15 5 29 21 34 39 8 29 3 65-12 87-7 9-18 18-24 21-12 4-41 8-54 7-24-2-52-16-61-29-8-12-12-27-12-52s3-39 12-58c4-8 4-12 1-12s-6 2-10 8c-6 10-12 29-13 44z"/>
<path fill="#0eb1d2" d="M957 687c3-20 0-35-7-47-8-13-20-20-39-23l-48-2c-11 1-35 6-46 11-17 6-38 22-46 34-11 17-24 55-27 77-1 20 1 31 6 27 1-1 2-2 2-10 1-19 7-44 17-67 10-22 17-30 36-42s39-18 65-18c30-1 50 2 59 8 11 7 16 17 17 31 1 8 1 11-2 24-4 21-13 48-22 63-6 9-14 18-21 23-22 13-39 20-65 23-18 2-29 0-46-6-15-6-24-12-30-21l-6-6c-3-2-3-2-4 0-4 5-3 7 1 14 9 13 27 24 52 30a147 147 0 00112-29c7-6 16-18 21-28a398 398 0 0021-66z"/>
<path d="M1168 694c6-1 11-3 11-5l-2-3c-2-2-2-2-4-1-6 2-16 2-48 1-26-1-40-2-64-1a936 936 0 01-89 1c-2 1-2 3 0 5l51 2a2904 2904 0 01145 1zM1098 1303a3754 3754 0 0176-200l17-2a3405 3405 0 00131-9c18-1 24-1 34-3a1580 1580 0 0171-11c6-2 10-5 9-7s-6-2-10-1l-38 7-33 4c-7 2-16 2-35 3l-46 2-97 8 11-29a2694 2694 0 0054-152l61 34a1380 1380 0 00150 75v-3c-3-3-8-7-28-16a1469 1469 0 01-162-88l-19-10 4-13 10-37c1-6 1-10-1-14l-1-3-2 4-4 13-13 46-21-11a2913 2913 0 00-94-51l22-12a2899 2899 0 0048-25l5-8-4-1-4-1-4 2-4 3-1 1c0 1-9 6-41 22l-27 15-13-6c-17-9-33-16-60-27-52-24-57-26-63-31-4-4-9-2-8 2 1 3 8 8 18 13a1584 1584 0 0093 42 1265 1265 0 0024 11l-11 6a1538 1538 0 00-164 98l-4-10c-12-42-30-101-35-110l-2-4h-8l2 6a2976 2976 0 0138 122c1 2 3 0-56 41l-29 17a696 696 0 00-66 39 2010 2010 0 00-57 37l2 4 16-8a3331 3331 0 01108-64c20-12 21-12 57-37l28-19 8 28a3026 3026 0 0133 124l-51 6a3658 3658 0 01-177 14l-1 3c0 4 2 5 16 4l60-5a2802 2802 0 00156-13l15 69 12 47a589 589 0 0118 71l4 1c4 0 4-4-1-27a916 916 0 00-23-86l-15-69c-2-8-2-9 1-9a2071 2071 0 0063-4 4610 4610 0 00124-8l-14 40a4420 4420 0 00-63 173l3 1h4zM1490 976l1-3-9-11-34-42a4922 4922 0 00-69-92c-3-6-4-7-6-7l-3 2v4c2 8 9 18 31 46a3341 3341 0 0176 95c9 9 10 10 13 8zM679 1018l3-5c1-3 2-7 4-9a4183 4183 0 0060-113 660 660 0 0025-45l5-7c4-5 7-9 7-11s-2-4-4-4l-3 2a123 123 0 00-17 26 330 330 0 00-20 34l-11 22-26 48-30 59 5 4 2-1z" fill="#b8c1bd"/>
<path d="M971 1108l-13-52a3481 3481 0 00-28-104 1797 1797 0 01163-98l19-10 20 9 58 32c48 26 44 24 44 25a1596 1596 0 01-66 184c-1 1-66 6-112 8a1686 1686 0 00-85 6z" fill="#304550"/>
<path d="M1180 1352a857 857 0 0070-55l13-11a1845 1845 0 01138-98 782 782 0 0144-31c3 0 1-1-3-3l-5-1-2 2-29 20a1594 1594 0 00-72 51 1669 1669 0 00-154 117l-19 13-7 4 3 4 2 4 3-3 18-13zM928 1372c1-1 2-3 1-5l-19-15a956 956 0 01-59-43 1108 1108 0 00-39-29 999 999 0 00-101-73c-1-1-5 2-5 4 0 3-1 2 29 21a828 828 0 0193 70 960 960 0 0160 44 1219 1219 0 0040 26z" fill="#b8c1bd"/>
</svg>
