<svg xmlns="http://www.w3.org/2000/svg" viewBox="0 0 285.7 285.8" style="background-color:#fff;">
  <path
    fill="#adadad"
    d="M169.4 235.4h.9-.9zm52.2 0h1.2-1.2zm-48-.2h1.4l-.7.1h-.6zm40.5 0zm-35.6 0h1.3-1.3zm27.6 0zm-22.8-.2h1.4-1.4zm15 0zm-10.5-.1h.6-.6zm5 0h1.1-1zm-9.9-.2c.1 0 .2-1.3.2-5V225v4.8l-.1 5c-.2 0-.2 0 0 0zm1.3 0h.7-.7zm13.4-.6v-.4.8-.4zm1.7.6zm-20.7-.1h1.2-1.2zm2.4-3V230a73.4 73.4 0 0 1 0 1.6zm26.2 3zm-33.5-.1h1.3-1.3zm42 0h1.8V216v18.5H214h1.8zm-45.4-.2h.4l-.2.1h-.2zm48-1v-.5 1.1-.5zm3.8 1c.1 0 .2-17.6.2-86.7V61.1v86.6a2789.6 2789.6 0 0 1-.2 86.6zm-23.9-1.2v-.6 1.2-.6zm-17.8-.8v-.7 1.4-.7zM10 233a6 6 0 0 0-1.5-.3c-.6 0-.7 0-1.7-.8s-1.9-2-2.1-2.8l-.3-.5-1.2-.5a4 4 0 0 0-2.2-.5H0v-26.5l1 .2c1.2.3 2.8.2 3.7-.3.9-.4 1-.5.4-.7-1.8-.6-3-2.5-2.6-4 .2-1 1-1.8 2-2.1a4 4 0 0 1 2-.2c.8 0 1.5.1 1.9.3l.7.3 1.4-.7c1-.5 1.8-1 2.3-1.5a12 12 0 0 1 4.9-2.7c.8-.2 2.4-.8 2.4-1l-.3-.6-.4-.4.5.5.6.5.6-.3.6-.4-.4-.7a15.4 15.4 0 0 0 .4.2l.3.5.7-.3c.7-.2.7-.2.5-1.4L23 185c0-.6 0-.5.2.4.2 1.1.5 1.9.7 1.8.8-.1 2.7-.3 3-.2.6 0 1 .6 1.5 1.5.3.8.4 1.2.2 2a35.4 35.4 0 0 0-.5 2.6c0 .2.2.2 2.2.2h2.3l-1.6.1-2.3.1h-.8l-.3.7a3 3 0 0 0-.2 1c0 .1 0 .2 1.7 1.6l1.8 1.7.8 1-1.3-1.2a20.7 20.7 0 0 0-3-2.4l-.1.4c0 .3.2.7 1 1.6.9 1.1 2.9 4 2.7 4l-1.1-1.5A27.6 27.6 0 0 0 27 197l-.4.6c-.8 1.2-2.1 2.8-5.4 6a34.3 34.3 0 0 0-5.6 6.4c-1.7 2.4-2.2 3.7-2.2 5.5v1l.6.1 1.3.2c1 0 2 .5 3 1.4.8.8.8 1 1 1.5 0 .3 0 .5-.2.6v.5c0 .3 0 .4-.2.5-.3 0-.5 0-.5-.3 0-.2-.4-1.1-.5-1l.2.6c.2.7.1.9-.2.9-.2 0-.3-.2-.4-.6-.2-.5-.8-1.5-1-1.5 0 0 0 .2.3.5.4.6.5 1.1.1 1.2-.2 0-.3-.1-.5-.5a5 5 0 0 0-.6-1c-.3-.3-.5-.4-1.8-.7l-1.5-.3-.8.6a8.4 8.4 0 0 0-2 2c-.9 1.2-2.5 4.3-2.9 5.4l-.3 1 .3.7c.4.9 1.3 1.7 2 2 2 .5 3.1.9 3.2 1l.4.4c.4.2.4.2 0 .7l-.3.4-.5-.2c-.6-.3-.7-.3-.5 0 .2.1 0 .5-.1.5l-1-.2zm8.7-40c.8-1 .7-1.7-.3-1.7-.5 0-1.3.7-1.6 1.2-.3.6-.3.7 0 1 .4.4 1.2.2 1.9-.5zm195 37.5-.1-2c0-.5 0-.6.1-.3v3.5zM198 230v-.3.6-.3zm-.7-1.4v-.8a17.6 17.6 0 0 1 0 .8zm-13.6-.8v-.9a20.9 20.9 0 0 1 0 1zm34.4.2v-.8a14.7 14.7 0 0 1 0 .8zm-20.3-.2c0-.3 0-.4.1-.3v.6-.3zm-17-1.9v-.3.8-.5zm17 0v-.3.6-.3zm15.7-1v-.5 1-.5zm-16-1.2.1-.3v.6-.3zm-.3-3zm-16.6 2.5c0-.4 0-.6.1-.4v.8-.4zm-.4-2.8zm-116 2.6h.7l-.3.1h-.4zm-1.1 0c0-.1.2-.1.2 0h-.2zm155-3v-1.4a67 67 0 0 1 0 1.4zm-34.4-2.6v-2.5a207.4 207.4 0 0 1 0 2.5zm13.8 4.4c0-.3 0-.4.1-.3v.6-.3zm-134 0h.2l-.1.1h-.1zm2.2 0h.3l-.2.1c-.2 0-.2 0 0 0zm3.4-.3.5-.5-.4.5-.5.5s.1-.3.4-.5zm-9.4-.4-.6-.7.7.7.7.7s-.2 0-.8-.7zm6.8.6.4-.1-.4.2c-.1 0 0 0 0-.1zm147-1.5v-.7 1.4-.7zm-146.2 1.2.2-.2h.2c-.1.2-.4.3-.4.2zm113.3-.7v-.4c.1.3.1.6 0 .8v-.4zM68 221l.2-.2c.2-.2.2-.2 0 0l-.2.2zm-7.4-.6-.2-.3.3.2.2.4-.3-.3zM59 220l-.1-.3.2.3v.3l-.1-.3zm10-.1.4-.3-.2.3a1 1 0 0 1-.3.2l.2-.2zm-9-.3c-.2-.2-.1-.2 0 0 .3.2.4.3.2.3l-.2-.3zm-2-2v-.1.2-.2zm125.4-1.8v-.9a22.8 22.8 0 0 1 0 1zm-124.6 1c0-.2 0-.2.1-.1v.2-.2zm11.7-.3v-.1.3-.2zm-12.8-.3v-.1.4-.3zm1-.1c0-.2 0-.2.1 0v.2-.2zm13-.2v-.2.4-.2zm141.7-1.3v-.7a16.3 16.3 0 0 1 0 .7zm-142.8 1c0-.2 0-.3.1-.2v.4-.2zm-12-1.5v-.6 1.3-.7zm-1-13.3v-7.2a1761 1761 0 0 1 0 7.2zm14.3 8V206a267.9 267.9 0 0 1 0 2.8zm111.6-1.6.1-2.8v2.4a43.3 43.3 0 0 1-.1.4zm34.3-2.6v-2.3a164.7 164.7 0 0 1 0 2.3zm-4.5 1.3v-1.2a44.3 44.3 0 0 1 0 1.2zm4.7-.7v-1a28.3 28.3 0 0 1 0 1zm-34.6-3.6V200l.1 1v1.5l-.1-1zm34.5-2.7v-.5 1-.5zm-34.6.5c0-.1 0-.2.1 0v.2-.2zm30-1.6v-.6 1.3-.7zm.8-.9v-.6 1.3-.7zm-155.5-5.3V189a180 180 0 0 1 0 2.5zm159 3.3c0-1 0-1.2.1-.7.2.9.2 1.8 0 2l-.1-1.3zm-4.2-.6v-.3.6-.3zm.8-1.4v-.3.8-.5zm3.3-1v-1.3l.1 1.2v1.3-1.2zm-4 0v-.4.6-.3zm.8-1.9v-.3c.1.2.1.6 0 .8v-.5zm-.6-.6v-.3.6-.3zm-53.7-1.2.3-.2c.2-.2.2-.2 0 0l-.3.2zm54.5-1v-.4.8-.5zm-195.2.2c-.2-.3-.2-.3 0 0l.2.1-.2-.1zm51.3-.2c0-.2 0-.4-.2-.4v-.1c.3 0 .4.3.3.6 0 .3 0 .3 0 0zm143.2-.1v-.3.6-.3zm-63.7 0c0-.2 0-.3.1-.1v.4-.3zm5.4.2h4V181l.1 3-.1 3.2-4 .1h-3.9zm-83-.2h.2-.2c-.1 0-.2 0 0 0zm4.2 0h.9-.9zm74.5-3v-1.5a70 70 0 0 1 0 1.6zm-72 2.9h.5-.5zm1.5-.2a22 22 0 0 0 .4-.2l-.3.2h-.1zm69-3.1v-1.4a49 49 0 0 1 0 1.4zm-91 2.2v-.2.3-.1zm14 .1h.3l-.1.1h-.2zm3 0h.9-.9zm88.5 0h.6l-.3.1h-.3zm-92.4 0c0-.1.2-.1.2 0h-.2zm7 0h.6-.7zm2.8 0 .2-.3c.2-.1.2-.1 0 0l-.2.3zm-24-.5c0-.1 0-.2.1 0v.2-.2zm76.3-.4h14.6v-11.4l.1-11.4v22.8h-29.2 14.5zm80-.4v-.3.6-.3zm-156.1.2v-.1c.1 0 .1.2 0 .2v-.1zm54.8-.5v-.3.6-.3zm1 .2c0-.2 0-.3.1-.2v.4-.2zm101-.4v-.3.7-.4zm-146.8.4c0-.2 0-.2.1 0v.2-.2zm98.6 0zm-92-.6.1-.3v.6-.3zm90 0 .4-.2-.2.2a1 1 0 0 1-.3.3l.2-.3zm-141.1-.2v-.1.4-.3zm90.3 0v-.2.3-.1zm-45.9-.4v-.2.5-.3zm97.7.3h1.2-1.2zm-1.4-.6-.4-.5.6.5c.7.7.5.7-.2 0zm5.2-1.1v-.9a19.4 19.4 0 0 1 0 .9zm-145.9 1c0-.1 0-.1 0 0 .1 0 .1.2 0 .2v-.2zm45-.1v-.3.5-.2zm-1.1-.3h.2l-.1.1h-.1zm146.8-.4v-.3.6-.3zm-100.3-.2v-.3.7-.4zm-46.8.1v-.3.2l.2.2c.1 0 .1.1 0 .1 0 0-.2 0-.2-.2zm96.3 0c-.2-.1-.3-.3-.3-.4.1-.1 0-.2 0-.1-.2 0-1-1.2-.8-1.3l.2.3c.2.3.2.4.3.3 0-.2.1-.1 0 0 0 .3 0 .4.1.3.1 0 .1 0 0 .2 0 .1 0 .1.1 0l.3.3c0 .1.1.2 0 .2l.2.2c.4.3.2.3-.1 0zM74.5 181v-.5 1.1-.6zm-6.5.6v-.1c.1 0 .1.2 0 .2v-.1zm-2.2-.4v-.1.3-.2zm148.8-1v-.6 1.2-.6zm-146.4.8v-.2.3-.1zm6-1c0-.6 0-1 .1-.6v1.3-.7zm9.8 1h2.7l-1.4.1H84zm26.6-.2c0-.2 0-.4-.3-.4s-.2 0 0 0c.4 0 .4 0 .4.3v.4l-.1-.3zm-20.7 0h1.4c.3.1 0 .1-.7.1h-.7zm5.2 0h1.4H95zm5.1-.2h1.4-1.4zm-42.1-.3c-.2-.2-.2-.2 0 0l.2.3-.2-.3zm47.4.2h1.4-1.4zm108.6-.6v-.3.7-.4zm-147.5.2v-.3l.1.2c0 .4 0 .4-.1.1zm93.5 0c-.1 0-.2 0 0 0h.2c0 .2 0 .2-.2 0zm-75.6-.1h1.3-1.3zm27.5 0h.5-.5zm40 0zm-62.6-.2h1.4-1.4zm72.8-.1v-.2.3-.1zm-103.3 0h3.5H59zm35.5 0h1.4-1.4zm5-.1h1.4-1.3zm62.4-.2c0-.1 0-.1 0 0 .1 0 .1.2 0 .2v-.2zm-104-6.1v-3.1a314.9 314.9 0 0 1 0 3.1zm9 6c0-.1 0-.2.1 0v.2-.2zm1.4-.1v-.2.4-.2zm36.3.2h1.4-1.4zM58.8 174v-2.7a230.5 230.5 0 0 1 0 2.7zm51 5.3h.8v-13.9 14H109l.9-.1zm4.5-.2 1-.3-.6.3h-.4zm-39.6-.9v-.5 1-.5zm87 .3v-.4.7-.3zm-94.2.2c-.2 0-.2-.1 0-.1l.3.1c.1.2 0 .2-.3 0zm48 0c-.1 0-.1-.1 0-.1l.2.1v.2l-.3-.2zm46.6-1.3v-.8a14.7 14.7 0 0 1 0 .8zm-46.3 1.2v-.1h.3v.2l-.3-.1zm.8-.3c-.2 0-.2 0 0-.2h.3l-.1.1c-.2 0-.1 0 0 .1s.2.2 0 .2l-.2-.2zM68 176.7c0-.9 0-1.2.1-.8a16.1 16.1 0 0 1 0 .8zm15.6.6.1-1c.2 0 .2 1.5 0 1.8v-.8zm130.6-.5v-.4 1-.6zm-95.1.7s0-.2.2-.2l.3-.1-.3.2c-.1 0-.2.1-.2 0zm-45-5.3v-2.1a140.7 140.7 0 0 1 0 2.1zm-5.8 3.2v-.5 1-.5zm93.3-1.5v-1.2a39.4 39.4 0 0 1 0 1.2zm-40.6 1.9.3-.3c.2-.1.2-.1 0 0-.1.3-.3.4-.3.3zm.8-.6.3-.3-.2.3a1 1 0 0 1-.3.2l.2-.2zm.7.2.2-.3c.2-.1.2-.1 0 0 0 .3-.2.4-.2.3zm0-.8.2-.2-.1.2a1 1 0 0 1-.3.3l.1-.3zM74.7 171v-2a110 110 0 0 1 0 2zm9.1 3v-.5.9-.5zm40.5-.1a9 9 0 0 1 .9-.9l-.8.9a9 9 0 0 1-1 .8l.9-.8zm-40.9-.3v-.5 1-.5zm40.4-.2 1.1-1-1 1-1 1 .9-1zm90.4-2.5.1-2.8a49.4 49.4 0 0 1 0 2.8zm-146.4.4v-1a24.4 24.4 0 0 1 0 1zm.5.6v-.7 1.2-.5zm57.1.8.3-.2c.2-.2.2-.2 0 0-.1.2-.3.3-.3.2zm-.4-.7.3-.2c.2-.2.2-.2 0 0-.1.3-.3.3-.3.2zm1.2-.2.3-.2-.2.2a1 1 0 0 1-.3.3l.2-.3zM84 170.3v-.7 1.3-.6zm41.4 1.1.3-.2c.2-.2.2-.2 0 0-.1.2-.3.3-.3.2zm89.1-.7v-.3c.1.2.1.6 0 .8v-.5zm-131.2-4v-2a110 110 0 0 1 0 2zm78.8.3v-1.5a67 67 0 0 1 0 1.5zm-95.2-.3h.3l-.2.1c-.1 0-.2 0 0 0zm82.6-15.8v-16h6.6l6.7-.1v.3c0 .2 0 .2-.1 0-.1-.1-.5-.2-6.6-.2h-6.6v32-16zm64.7 15.3c-.1-.4-.1-.8 0-.8 0 0 .2 1 .1 1.3l-.1-.5zm-85.3 0c0-.1 0-.2 0 0 .1 0 .1.1 0 .2v-.2zm32.5-5v-2.6a201.8 201.8 0 0 1 0 2.5zm-33.3 4.6c0-.1 0-.2 0 0 .1 0 .1.1 0 .2v-.2zm-59.6-5.7v-3a275 275 0 0 1 0 3zm-2 5v-.2c.1 0 .2 0 .1.2 0 .3-.2.3-.2 0zm61.7 0c0-.2 0-.3.1-.2v.3-.2zm-16.5-1.7v-.7 1.4-.7zm-27.6-3.1v-2.1a135.8 135.8 0 0 1 0 2zm45 3.6.1-.3v.6-.3zm-62.6.2v-.3l.1.2c0 .4 0 .4-.1.1zm-.7-.5.2-.2c.2-.2.2-.2 0 0l-.2.2zm.9-.2c0-.2 0-.3.1-.2v.3c-.2.1-.2 0-.1-.1zm-.5-.4.4-.4s0 .2-.2.3l-.2.1zm7.8-2.4v-1.2a41.6 41.6 0 0 1 0 1.2zm-7 2h.2l-.2.1c-.1 0-.2 0 0 0zm61.2-.1c0-.2 0-.3.1-.2v.3-.1zm.8-.3c0-.1 0-.1.1 0v.2-.2zm-18.5-.4v-.2c.1.1.1.3 0 .4v-.2zm17.6-.2v-.1.3-.2zm.8 0v-.1.3-.2zm-17.3-.3c0-.1 0-.2 0 0v.2-.2zm-28.3-2.7v-1.4a49.4 49.4 0 0 1 0 1.4zm44.7 2.3v-.2.3-.1zm.8 0c0-.1 0-.2 0 0v.2-.2zm-17.5-.3c-.1-.3-.1-.3 0 0 .2 0 .3.2.3.3 0 .2-.1.1-.3-.3zm-2.9 0h.7-.7zm-1.9-.2h.3-.2zm22.1-.1c0-.2 0-.2.1-.1v.2-.1zm-.8-.2c0-.1 0-.2.1 0v.2-.2zm-53.1-4v-1.8a98 98 0 0 1 0 1.8zm33 3.2h.6-.7zm-3-.3-.1-.3.2.2c.2.4 0 .5-.1.1zm-36.9-3.3v-1a32.4 32.4 0 0 1 0 1zm37.6 1.9v-.2.3-.1zm56.7-3v-1.8a83.4 83.4 0 0 1 0 1.7zm-58 1.8.1-.5v1.1-.6zm64.8-9.6v-4.6a700.6 700.6 0 0 1 0 4.6zm-63.5 7.8v-.5 1.1-.6zm21.4-.8v-.1.3-.2zm-52.6-1.6v-.6 1.3-.7zm52.4 1c0-.1 0-.1.1 0v.2-.2zm-22.3-.9v-.5 1.1-.6zm-20.9-.4v-.6 1.2-.6zM59 148.3c0-4.3 0-4.6.2-4.6s.2 0 0 0a21 21 0 0 0-.1 4.7v4.5zm25.2 2.6v-.7a14.7 14.7 0 0 1 0 .7zm42.2.6c0-.1 0-.2.1 0v.2-.2zm-20.7-1v-.6 1-.5zm20.6.3v-.2c.1.1.1.3 0 .4v-.2zm-.5-.3v-.1.3-.2zM68 150c0-.3 0-.4-.2-.4s-.2 0 0-.1l.2-.5.1.6v.8l-.1-.4zm.4-.6v-.6 1.1-.5zm27.9 1h.9-.9zm6.7 0h.3-.2c-.1 0-.2 0 0 0zm58.6-1.4v-.7 1.5-.8zm-87 0c0-.6 0-.9.1-.5v1.2-.6zm18.8 1.2h.5-.5zm8.8 0h.4-.4zm-10.4-.1h.4-.4zm9.4 0h.3-.3zm24.9-.2c0-.1 0-.1 0 0 .1 0 .1.2 0 .2v-.2zm-36 0h.5-.5zm10 0h.3l-.1.1h-.2zm-11.6-.1h.5-.5zm10.6 0h.3-.4zm-11.5-.1h.2-.2c-.1 0-.2 0 0 0zm9.8 0h.5-.5zm-30.7-.3-.1-.2.2.2c.2.3.1.3-.1 0zm19.8.1h.3l-.1.1h-.2zm9.3 0h.5-.5zm29.8-.4v-.3.6-.3zm-40.2.3h.4-.4zm8.4 0h.7-.7zm-8.9-.1h.3-.2c-.2 0-.2 0 0 0zm5.4 0h1-1zm35.7-.2c0-.1 0-.1 0 0v.2-.2zm-21.4-.9v-.5 1.1-.6zm-30.2 0v-.5 1-.5zm-7.3.6v-.1c.1 0 .1.2 0 .2v-.1zm16.4 0v-.1c.1 0 .1.2 0 .2v-.1zm-17.3-.3v-.4l.1.2c0 .4 0 .5-.1.2zm59.6-.3c0-.3 0-.4.1-.3v.5-.2zm-42.3-.2c0-.2 0-.2-.2 0v-.3c.1-.2.2-.1.3.2 0 .1.1.3 0 .4v-.3zm-16.5-.6c0-.2 0-.4.1-.3l.1.3-.1.4v-.4zm-9.1-1.8v-1a30.3 30.3 0 0 1 0 1zm25.2 2 .1-.3s.1 0 0 .1c0 .3-.1.3-.1.1zm-17-.7.1-.2v.4-.2zm16.9.2v-.1c-.1 0-.2 0-.1-.1l-.1-.2c-.1 0-.1-.1 0-.1.2 0 .5.5.3.6H83zm22.7-.8c0-.6 0-.9.1-.5v1-.5zm-37.6.1c0-.7 0-.7-.3-.7-.2 0-.2 0 0 0 .4-.2.5-.3.5-.9v.3a9 9 0 0 1 0 1.5c-.1.6-.1.6-.2-.2zm57.5-.5v-1l.2 1.6-.2-.6zm-59.3.5.2-.2c.2-.2.2-.2 0 0l-.2.2zm16.3-.1v-.2l.1.2v.1l-.1-.1zm20.2-.2h.6-.6zm-2-.1h.5-.5zm-2-.2h.5-.5zm-2-.1h.5-.5zm-2.1-.1h.6-.6zm-20.2-.6v-.3.6-.3zm18.2.4h.6-.6zm-2-.1h.5-.5zm-2-.1h.6-.6zm-2-.2h.5-.6zm16.6 0h.5-.5zm1.4-.3v-.2.5-.3zm-20 .2h.5-.6zm16.6 0h.5-.5zm-18.6-.1h.5-.5zm16.6 0h.5-.5zm62.8-1v-.4 1-.5zm-64.9.8h.6-.6zm64.5-.9v-.5 1.1-.6zm-66.5.8h.6-.6zm-2-.1h.6-.6zM81 144c-.1-.2-.2-.3 0-.3l.3.6-.3-.3zm10.3.2h.6l-.3.1h-.3zm-2 0h.5-.6zm-2-.2h.5-.6zm-2-.2h.5l-.3.1h-.2zm-2 0h.5-.5zm-21.8-.2h1-1zm3.5-.2h1-1zm3.5 0h.9-.9zm10.9 0c.1-.1.3-.1.4 0h-.4zm2.3-.2c-.2-.2-.2-.2 0 0 .3.1.3.2.2.2l-.2-.2zm-9.7 0h1-1zm4 0zm30-.3v-.1.4-.3zm-47.3-.2h.5-.5zm61.8 0zm-59.2-.2h1-1zm3.5-.1h1-1zm40.1-.4v-.6h2.4l-1.1.1H105v1zm-36.5.3h1-1zm93.9-.2c0-.1 0-.1 0 0 .1 0 .1.2 0 .2v-.2zm-90.3 0h1-1zm4.3 0zm131.5-2.3v-.4c.1.2.1.6 0 .8v-.4zm-45 .1h.2c.1.1.1.2-.1.2-.1 0-.2-.1-.1-.2zm.2-.4h.2c.2.1.2.2 0 .2s-.2 0-.2-.2zm.4-.2c0-.3.7-1 1-1l-.5.4-.4.6c-.1.1-.1 0-.1 0zm44.5-2.3v-7.4 4a143.3 143.3 0 0 1 0 3.4zm-42.1.2zm-2.3-.6-.2-.3.3.3c.3.2.3.3.2.3l-.3-.3zm-.4-.6-.1-.3.2.2c.2.4 0 .5-.1 0zm2.7.2zm-1.5-.3-.1-.3.2.3c0 .1.1.2 0 .2l-.1-.2zm-.3-1.3v-.7c.2-.1.1 1 0 1.2v-.5zm-30.4.2zm74.5-.9v-.3.8-.5zm-71-.1zm-9.6-1v-.3c.1.3.1.6 0 .8v-.4zm1-.2v-.3.8-.5zm11.5.1v-2l.2-2v2c0 2 0 2.3-.2 2zm1.6-2.5zm4.8-2.4zm-14.7 4.2.2-1.6v2.2c-.1.1-.2 0-.2-.6zm1.7-.3v-2c.1-.9.1-.9.2.5l-.1 2c-.1.5-.1.4-.1-.5zm1.5-.3.1-2.3c.1-1 .1-.9.1.5v2.3c-.1.8-.2.8-.2-.5zm3.4-.8.1-2.1a21.4 21.4 0 0 1 0 4.2c-.2 0-.2-.7-.1-2zm5 .9v-.6 1.2-.6zm5 1a33.1 33.1 0 0 1 0-4.7v4.6zm3.1-1.5v-5.4c.1.1.2 1.4.1 3.7v1.7zm3.5 1v-.3.7-.4zm1.6.4v-.2.4-.2zm4.8-.2v-.2.5-.3zm-31.1-1V129c.2-.8.2-.8.2.4l-.1 2.2c-.1.9-.1.8-.1-.4zm33.7.4v-.4.9-.5zm-1 0c0-.5.1-.6.1-.4v.8-.4zm-26.4-.8.1-2.3c.1-.8.1-.8.1.5v2.3c-.2.9-.2.8-.2-.5zm13.3-1.7zm3.3 1.3a63 63 0 0 1 .2-.9v2.7zm26.7 1.4v-.3.5-.2zm-20.2-1.1v-3.4 1c.1.6.2 1.6.1 2.3v1.2zm48.6.1v-.4.9-.5zM158 130v-3.2 1l.2 2.1v1.3zm-30.3-.2v-.3.8-.5zm52-.4v-.6 1.2-.6zm-23.3 0v-3 .6c.2.4.2 1.3.2 2v1.5zm-27.8.2v-.4.8-.4zm32.6-.3v-2.8.7c.1.3.2 1.2.1 1.9v1.3zm18.7.3v-.3.6-.3zm-25-.7c-.2-1.7-.2-3.1 0-2.7v3.8zm8.9-.2v-.4.8-.4zm-1-.2c0-.4 0-.6.1-.3v.8-.5zm-30.9-2.7c0-1.5 0-2 .1-1.6v3c0 .6-.1.2-.1-1.4zm76.5.7v-.7 1.3-.6zm-80.6.3v-.4.8-.4zm52.3-.3v-.5 1.1-.6zm-51.4 0v-.3c.1.2.1.6 0 .8v-.5zm4.8-1.6v-1.5c.2 1 .2 2.5 0 3.2v-1.7zm-3.2-.4c0-1.6 0-1.9.1-1.3v3-1.7zm33.4 1.1v-.4.8-.4zM135 124v-2.4l.1 2v2.2c-.1.4-.1 0-.1-1.8zm27.6 1.5v-.4c.1.3.1.6 0 .8v-.4zm-26-2.5v-1c.2 2 .2 3.3 0 3.3V123zm22.7 1.2zm-16-2-.2-7.7v-4.8h-.6l-.6-.1h1.3l.1 7.7a404.8 404.8 0 0 1 0 4.8zm-5 1.7v-11.1 6a240.8 240.8 0 0 1 0 5zm41.1-3.8v-2.3a169.7 169.7 0 0 1 0 2.3zm-21.6 2zm-30 1.7v-.4c.1.2.1.6 0 .8v-.4zm12.3-2.1zm20.9.3zm-32.2 1.5v-.4.8-.4zm27.4-2.1zm-14.5.4v-1a24.4 24.4 0 0 1 0 1zm13-1.2zm25.4 1.6v-.6 1.3-.7zm-17.6.3v-.4.8-.4zm1 0v-.3.8-.4zm45-.8v-.6 1.2-.6zm-55.7-.9v-.8a19.4 19.4 0 0 1 0 .8zm55-1.9zm-75.7 2v-.6 1.2-.5zm15.9-1v-1.1a32.4 32.4 0 0 1 0 1zm3.1 0v-1a26.5 26.5 0 0 1 0 1zm-17.4.6v-.6 1.2-.6zm11-4.3zm-14.2 4.3v-.5 1-.5zm-2.5.2v-.3.7-.4zm.9-.2v-.4.8-.4zm6.3-.4c0-.7 0-1 .1-.7v1.2-.5zm14.3-1v-1a26.5 26.5 0 0 1 0 1zm-12.7.4v-.6 1.2-.6zm22.4-.1v-.6 1.2-.6zm4 .2c0-.5.1-.7.1-.4v.8-.4zm-.8-.1v-.5.9-.4zm-1.6-.5v-.6 1.2-.6zm-15.7-3.2v-2.2a140.6 140.6 0 0 1 0 2.2zm12.5 3v-.6 1.2-.5zm-1.6-.4v-.6 1.2-.6zm-24-1.5v-1.1a37 37 0 0 1 0 1.1zm22.4 1v-.7 1.3-.6zm28.3.8c0-.1 0-.2 0 0 .1 0 .1.2 0 .2v-.2zm-54.6-1v-.4.8-.4zm2.3-1.3v-1a28.3 28.3 0 0 1 0 1zm3.1-.4v-1a37 37 0 0 1 0 1.1zm5 .6c0-1 0-1.3.1-.8a19.4 19.4 0 0 1 0 .8zm-9.5.8v-.4c.1.3.1.6 0 .8v-.4zm53.8.3c0-.1 0-.2.1-.1v.3-.2zm-50.6-1.3v-.7 1.2-.5zm31 .1v-.4.9-.5zm-32.6-.3v-.6 1.1-.5zm4.5-1.2v-1a34.4 34.4 0 0 1 0 1.1zm27.1 1.4v-.4c.1.2.1.6 0 .8v-.4zm-28.4-.4v-.7 1.2-.5zm6.5-1v-.9a24.4 24.4 0 0 1 0 1zm1.3-1.8v-1.8a102 102 0 0 1 0 1.8zm41.4 3.3v-.1.3-.2zm-47.6-1v-.7 1.2-.6zm8-1zm36.8-.9v-1.4a63.6 63.6 0 0 1 0 1.4zm28.4-1.8v-2.4a180 180 0 0 1 0 2.4zm-71.9 2.3v-1.2a34.4 34.4 0 0 1 0 1.2zm5.2.1v-1a26.5 26.5 0 0 1 0 1zm-5 .7c0-.7 0-1 .1-.6v1.2-.6zm15.8-.7v-.8a19.4 19.4 0 0 1 0 .8zm6.4.6v-.7 1.2-.5zm.2-1.2v-1.1a36.8 36.8 0 0 1 0 1.1zm1.3 1c0-.6 0-1 .1-.6v1.2-.6zm-7.6-1.4V112a41.6 41.6 0 0 1 0 1.2zm4.5 1.1v-.6 1.2-.6zm3.4-.8v-1a28.3 28.3 0 0 1 0 1zm-32.7 1.1v-.3c.1.2.1.6 0 .8v-.5zm1-.2v-.4.9-.5zm54 .2v-.3.6-.3zm-27.3-.8v-.7 1.3-.6zm1.8-.8v-2h1.1-.5l-.5.1v4zm-3.4.3v-.6 1.2-.6zm-3.3-1v-1a28.3 28.3 0 0 1 0 1zm12 1.2v-.4c.1.2.1.6 0 .8v-.4zm-.9-.1v-.5.9-.4zm-16-1.6v-2.1h-.5l-.5-.1h1.2v4.2l-.1-2.1zm10 .6c0-.8 0-1.1.1-.7a14.7 14.7 0 0 1 0 .7zm-8.3-.8v-2h-1.3.6l.7.1v3.9zm1.6 0v-2H148h.6l.7.1v3.7zm-17 .5v-.5 1-.5zm22.1-.1v-1.1h1.4-.6l-.6.1v1l-.1 1zm-23.8 0c0-.4 0-.6.1-.4v.9-.4zm52.6.3v-.3.6-.3zm-55-.6c0-.5 0-.7.1-.5v.9-.4zm5.6 0v-.3c.1.2.1.6 0 .8v-.5zm45.7-.1v-.4.9-.5zm-50.3.2v-.2.4-.2zm6.2-.4c0-.5 0-.5.6-.5h.6-.5c-.5.1-.6.1-.6.5s0 .4 0 0zm3.2-.1v-.3.5-.2zm-1.6 0c0-.3 0-.4.2-.4.1 0 .2 0 0 0l-.1.4c-.1.2-.1.2-.1 0zm-7.3 0h.4-.4zm31.5 0h.4-.4zm-30.2-.1h.5-.5zm28.7 0h.4-.4zm3-.7.1-.5v.9-.4zm-29.9.5h.6-.6zm-3-.4h.4l-.2.1h-.2zm31 0h.4l-.2.1h-.1zm1-.5c0-.3 0-.5.1-.3v.7-.4zm-30.5.4h.5-.5zm28 0h.5-.5zm24-.5v-.3.7-.4zm-50.1.4h.7-.7zm24 0h.7-.6zm-19.7-.2c1.2 0 1.8 0 1.9-.2 0 .2-.3.3-1.9.3h-1.8 1.8zm15.1 0zm30-.9v-.3.7-.4zm-43 .1.4-.3s0 .2-.2.3a1 1 0 0 1-.3.3l.2-.3zm1.2.2h.4-.4zm3 0h.6-.7zm6.3 0h.4-.4zm-21.7-.6v-.2.4-.2zm1-.2v-.2.4c0 .1-.1 0 0-.2zm12 .1zm4 0zm34.6-.2v-.2.4-.2zm-.7-.4v-.3.6-.3zm-17.6.2v-.2.3-.1zm1 0v-.2.3-.1zm20.7-.2v-.1.3-.2zm24.5-1.1v-.6 1.1-.5zm-28 .3v-.1.2-.1zm2.8 0c0-.3 0-.3.1-.2v.3-.2zm.8-.4c0-.2 0-.3.1-.2v.4-.2zm-4.3-.2v-.2.4-.2zm.5-.2v-.1.3-.2zm3.2-.5v-.1.3-.2zm-22.6-.5-.5-.6.5.5.6.6-.6-.5zm23.4.3c0-.1 0-.2 0 0v.2-.2zm-4.7-.1c0-.2 0-.2.1 0v.2-.2zm-48.3-.2.3-.3s0 .2-.2.3a1 1 0 0 1-.3.3s0-.2.2-.3zm30.3-.6-.4-.5.5.4.5.5c0 .1-.2 0-.6-.4zm22 .3v-.1c.1 0 .1.2 0 .2v-.1zm-4.1-.2c0-.1 0-.2 0 0 .1 0 .1.2 0 .2v-.2zm-48.9-.2.3-.2-.2.2a1 1 0 0 1-.3.3l.2-.3zm49.3-.2c0-.1 0-.2 0 0 .1 0 .1.2 0 .2v-.2zm-48.7-.2.2-.2c.2-.2.3-.2 0 0 0 .2-.2.3-.2.2zm.5-.4.3-.2h.3l-.3.1h-.3zm47.5-.2c0-.1 0-.1.1 0v.2-.2zm5.5-.2v-.1.2-.1zm-49.2-.2h.3l-.2.1c-.1 0-.2 0 0 0zm.6-.1h.2-.2zm.6-.1h.3-.2c-.1 0-.2 0 0 0zm.8-.2h.3l-.2.1c-.1 0-.2 0 0 0zm17.2 0h.3l-.2.1c-.1 0-.2 0 0 0zm-16.3-.1h.4-.4zm15.3 0h.3-.3zm-14-.1h.4-.4zm12.7 0h.4-.4zm-11-.2h.7-.7zm9 0h.7-.7zm-5.4-.1h.7-.7zm1.7 0h.7-.7zm32.3-.3c-.2-.3-.2-.3 0 0l.2.3c0 .2 0 0-.2-.3zm-43 .2h.2-.2c-.1 0-.2 0 0 0zm.6-.2h.3l-.1.1h-.2zm.8 0h.3-.2zm17.2-.1h.2-.2zm-16.2-.1h.4-.4zm15.1 0h.4-.4zm-14-.2h.5l-.2.1h-.2zm12.8 0h.4l-.3.1h-.1zm30-.1c-.2-.5-.2-1 0-.7v.7zm-40.9 0h.8-.8zm8.8 0h.7-.7zm28.2-.1c-.1-.4-.1-.5 0-.4v.2s0 .1.2 0v.2c0 .3-.1.3-.2 0zm-.3-.7s0-.2-.2-.3l-.3-.4v-.1l.4.4c.3.3.3.4.1.4 0 .1 0 .1 0 0zm30.3-2.3v-1.2a41.6 41.6 0 0 1 0 1.2zm-26.4 1.9.1-.2.2.1c0 .1 0 .2-.2.2l-.1-.1zm-.1-.4.1-.3c0-.1.1-.1.1 0l-.1.3s-.1.1-.1 0zm4-1.4c0-.2.1-.2.2-.1v.3l-.1-.2zm23.1-3v-1a34.4 34.4 0 0 1 0 1zm-28.7 1-.4-1 .5.9.4 1-.5-.9zm6 .7v-.1.2-.1zm-3.7-.3.2-.2c.1 0 0 0 0 .2l-.2.2v-.2zm3.3-.1V97v.2-.1zm-3-.4.1-.2v.3c-.2.1-.2 0-.1-.1zm3.5-.4V96v.6-.3zm-.4 0v-.1c.1 0 .1.2 0 .2v-.1zm-5.5-.2c-.1-.3 0-.4 0-.1l.1.3-.1-.2zm5.6-.6c0-.2 0-.2.1-.1v.2-.1zm-6.3-.2c0-.1 0-.1 0 0v.2-.2zm.5 0v-.2.3-.1zm0-.6v-.1c.1 0 .1.2 0 .2v-.1zm6-.3v-.3.5-.2zm.2 0v-.1c.1 0 .1.3 0 .4v-.3zm-6.7-.1v-.1.3-.2zm4.6-1.2v-.4.9-.5zm-.8-.2v-.4c.1.2.1.6 0 .8V93zm2.8 0v-.2.3-.2zm-5.8-.4.6-.3c.1 0 .1.1-.1.2l-.6.3.1-.2zm1.1-.2h.3-.2c-.2 0-.2 0 0 0zm-5-.4v-2.3l.1 1.2V92zm8.7-1.3c0-1.5.1-1.7.2-.3l-.1 1.3v-1zm22.9-1.5V88a44.3 44.3 0 0 1 0 1.2zM184.7 91c0-.1 0-.1 0 0 .1 0 .1.2 0 .2V91zm-8.2 0v-.2.3-.2zm5.8-.2c-.2-.3-.2-.3 0-.1.3.2.3.3.2.3l-.2-.2zm.7-.1-.2-.3.3.2.2.4-.3-.3zm1.6-.5c0-.1 0-.1 0 0v.2-.2zm-3.6 0 .1-.1h.1v.2l-.2-.1zm-4.4-.4c0-.2 0-.3.1-.2v.4-.2zm7.8-.3c0-.2 0-.2.1-.1v.2-.1zm24-2.2V86a36.8 36.8 0 0 1 0 1.2zm-31.6 1.4v-.1.3-.2zm8 0c0-.1 0-.2.1-.1v.3-.2zm-8.4-.2V88v.5-.2zm12.4-.2V88v.5-.3zm-4.1-.5v-.2c.1.1.1.3 0 .4v-.2zm-7.8-.2c0-.2 0-.2 0 0 .1 0 .1.1 0 .2v-.2zm-.4-.7v-.1c.1.1.1.3 0 .4v-.3zm12.5-2v-1.3a44.3 44.3 0 0 1 0 1.2zm-5.3 2c-.1-.3 0-.4 0-.1l.1.3-.1-.2zm5-.2v-.2.5-.3zm-9.2.2.2-.1-.1.2v-.1zm-2.9-.9c0-.1 0-.2.1 0v.2-.2zm3.2-.5v-.1.3-.2zm3.2 0c0-.2 0-.2.1-.1l.1.2-.2-.1zm-6.2-.3c0-.1 0-.2 0 0v.2-.2zm11.7-.2c0-.3 0-.4.1-.3v.6-.3zm-5.9-.1-.2-.3.3.2.2.4-.3-.3zm1 0v-.3s0 .2.2.3v.3l-.2-.3zm-6.7-.5c0-.1 0-.2 0 0 .1 0 .1.2 0 .2v-.2zm4 0 .2-.2c.2-.1.2-.1 0 0-.1.3-.3.4-.3.3zm2.1-.3-.4-.5.5.4c.4.4.4.5.3.5l-.4-.4zm-6-.5c0-.1 0-.2.1 0v.2-.2zm11.4-.4V83v.5-.3zm-7 .2h.2-.2c-.1 0-.2 0 0 0zm6.9-1.7v-.2.5-.3zm19.3-2v-1.2a44.3 44.3 0 0 1 0 1.2zm.7 1V80v1.2-.6zm-23.6.5c0-.1 0-.1 0 0 .1 0 .1.2 0 .2v-.2zm0-.4v-1.1l.1.6c0 .6 0 .8-.2.5zm3.4-.5c0-.3 0-.4.1-.3v.5-.2zm.7-.3v-.3.6-.3zm-.8-1.2v-.2c.1.1.1.3 0 .4v-.2zm-12.3-.6.1-.3v.6l-.1-.3zm13-.2v-.3.6-.3zm-.8-.6V77v.5-.2zm20.2-1.4v-.6 1.3-.7zm-19.6.2c0-.3 0-.4.1-.2v.5-.3zm-6-.4-.4-.4.6.4c.6.6.5.6-.2 0zm5.3.1v-.2.4-.2zm-7.1-.1.4-.4-.4.4-.5.4zm-.7-.3.3-.3s0 .2-.2.3a1 1 0 0 1-.3.3l.2-.3zm2.9-.2-.4-.4.4.4.4.5-.4-.5zm-1.4 0h.2-.2zm-.9-.4.4-.2c.2 0 .1 0-.3.3-.3.1-.3.1 0 0zm7.8-.3v-.1c.1.1.1.3 0 .4v-.3zm-.8-.2v-.2.5-.3zm-6.3.2h.4-.4zm7-1.1v-.2.4-.2zm-.8-.5v-.2.4-.2zm.6-.7c0-.3 0-.3.1-.2v.4-.2zm20-.9v-.6V72v-.6zm-.6-1.4v-1.2a44.3 44.3 0 0 1 0 1.2zm-20.1 1.5v-.2.4-.2zm.6-.4v-.2c.1.1.1.3 0 .4V71zm-.8-1v-.2c.1 0 .1.3 0 .4V70zm.7-.2v-.2.4-.2zm-.2-1.1c0-.2 0-.3.1-.2v.3-.1zm-.6-.3v-.2.4-.2zm.5-.7v-.1.3-.2zm20.3-1.2V66v1.3-.7zm-21 0c0-.3 0-.4.1-.3v.6-.3zm.6.2v-.2.3-.1zM169 64.6v-1a24.4 24.4 0 0 1 0 1zm18.2 1.1c0-.1 0-.2.1-.1v.3-.2zm-.5-1v-.3.5-.3zm.4 0v-.2c.1.1.1.3 0 .4v-.2zm-7-.2v-.1.3-.2zM170 62.3v-1a24.4 24.4 0 0 1 0 1zm10.3 1.5c0-.1 0-.2.1 0v.2-.2zm6.8 0v-.2.3-.1zm-6.6-1v-.1.3-.2zm6.4 0c0-.1 0-.2.1-.1v.3-.2zm20.8-.9c0-.7 0-1 .1-.6v1.2-.6zm-28 .7c.1-.1.1-.2.2 0v.2l-.1-.2zm27.6-6.8a49.4 49.4 0 0 1 .1 1.5v5.5zm-26.7 6v-.2.3-.1zm6-.3c0-.3.1-.4.2-.2.2.4.2.7 0 .7l-.1-.5zm-6.7.1c0-.1 0-.2.1-.1v.3-.2zm.8-1c0-.4 0-.5.1-.3v.5-.3zm42.5-1.3v-1a20.9 20.9 0 0 1 0 1zm-43.1 1c0-.1 0-.2 0 0v.3-.2zm.1-1.4v-.1c.1.1.1.3 0 .4v-.3zm-11-1.8zm11.7 1.3v-.3.7-.4zm26.7-1.3v-.6 1.3-.7zm14.8-1v-.9a19.4 19.4 0 0 1 0 .8zm-42 .6v-.3.7-.4zm-10.5-1.9v-1a26.5 26.5 0 0 1 0 1zm10.6-.7v-.4.8-.4zm42.6-1.6v-.9a20.9 20.9 0 0 1 0 1zm-42.5-1v-.3.7-.4zm-11.2-1.8v-1a24.4 24.4 0 0 1 0 1zm53.2-.4v-.8a19.4 19.4 0 0 1 0 .8zm-41.9-.2.1-1.4.1-.8v2.5c-.1.2-.2.1-.2-.3zm-11-1.7.1-1a26.5 26.5 0 0 1 0 1zm53.3-1.6v-1a20.9 20.9 0 0 1 0 1zm-.3-3.3v-.8a19.4 19.4 0 0 1 0 .8zm-53.2 0v-3l.2-1.5v1.8l-.1 3v1.3l-.1-1.6zm53.3-3.4v-.8a19.4 19.4 0 0 1 0 .8z"/>
  <path
    fill="#414141"
    d="M169 210v-25.5h-1.7c-2 0-2.3.2-2.3 1v.5h-2c-1.5 0-2.1 0-2.2-.2-.2 0-.2 0-.2.6 0 1-.3 1.6-1 1.9-.3.2-.8.2-4.4.2-4 0-4 0-4.5-.4a2 2 0 0 1-.5-.5l-.2-3.4c0-3 0-3-.3-3-.2 0-.2 0-.2 2.5v2.6h-37v-2.6l.1-2.6h-1.9v-.8h-.7c-.5.1-6.5.3-13.4.4-12.4.3-12.6.3-12.8.6l-1 2.2c-1.6 3.4-1.5 3.4-6 3.6h-4.2l-.9-.1v14.7c0 16 0 15.1-.8 17a6.4 6.4 0 0 1-4.4 4c-1.5.4-3.7.2-5-.5-.9-.3-2-1.4-2.6-2.3-.5-.8-1-2.2-1.2-3.5-.1-.5-.2-5.9-.2-15.6 0-16.5 0-15.7 1-18.4l.4-1.4c0-.2 0-.3-.3-.4-.3-.1-.5-.4-.6-.6-.2-.2-.2-3.8-.2-18.4 0-21 0-18.8 1.5-19a363 363 0 0 1 18.2-.4c3 .1 3.4.2 4.1 1l.5.5 10.9.7 11.3.7h.5v-2.9l.1-.6h10.3l10.2-.1 1-3.2 1-3.1.6-13.5c.5-12.1.6-13.5.8-14.3.7-2 2.1-3.3 4.8-4.2 2.4-.8 5.3-1.2 10.5-1.3 9.5-.2 14.6.8 17 3.3a5 5 0 0 1 1.6 3.3c.2 1.2 1.2 25.6 1.2 26.2-.1.5.3 1.3.6 1.5h4.6v-33.6a2331.4 2331.4 0 0 1 .5-60.7l.3 13.6c.2 12.1.2 22.8.2 96.3v82.6h3l5 .2 2.2.1v-.8a262.5 262.5 0 0 0 .2-15.2 567 567 0 0 0 .5 12.6v3.4h2.1l.2-12.3c.1-16.6.2-18 .4-5.2l.1 14.1.1 3.5h1.9l-15.2.5H169zM67.3 221.3c1.5-.7 2.6-2.2 3.1-4.2.3-1 .3-1.6.3-15.7v-14.7l-1-.4c-.7-.2-1.2-.5-1.4-.7-.2-.3-.5-1.3-.5-2.1s-.1-1-.6-.9h-.5c-.3-.2-.7-1-.7-1.5v-.4h-6l-.5 1.4-.8 2.5-.3 1.2V201c.1 14.5.1 15.1.4 16.1.5 2 1.5 3.5 2.9 4.2 1 .5 1.5.5 3.2.5 1.3 0 1.6 0 2.2-.4zm92.2-34.1.1-3.2v-3h-8.4v3c0 3 0 3 .3 3.2.4.2 7.8.2 8 0zm-79.2-1.5c.5-.3.7-.6 1.4-2.2 1.4-3 1.5-3.2 1.9-3.4.3-.1 2.7-.2 13.6-.5l13.5-.4.1-8.9c0-7.8 0-8.8-.2-9.2-.2-.6-.7-.7-2.3-.7a9 9 0 0 1-1.7-.2c-.8-.2-1.5-.9-1.8-1.9-.4-.9-.4-1.3-.2-7.6.1-2.5.2-4.5.1-4.6l-11.6-.8-11.6-.7-.2-.5c-.4-.8-1.3-1-5.5-1a279 279 0 0 0-16.4.5H59v35.7c0 .4 0 .4 3.4.4s3.5 0 3.7-.3l.3-.5c0-.2.6-.5 1-.3.4 0 .4 0 0 .1l-.4.3-.2.5v1.5c-.2.5.1 1.4.5 1.5.6.2.6.2.8-.5l.2-.7v1c0 1 .4 2.5.6 2.7a12.6 12.6 0 0 0 5.5 1.3l6-.4zm-5.8-3.2a773.5 773.5 0 0 1 .2-37 588.6 588.6 0 0 1-.2 37zM68 176a411.6 411.6 0 0 1 .1-29.3c.3-1.6.4 22 0 29.8v2.3zm15.5-3.2a340 340 0 0 1 0-20.2v-4l-.3-.8c-.4-1.2-.3-1 .3.3l.5 1v10.1c0 10-.2 17-.4 17l-.1-3.4zm-17-6.2c-.4-.2-.6-1-.7-2 0-.8 0-1 .3-1.4.4-.6.5-.7 1-.6.4 0 .5 0 .1.1a1 1 0 0 0-.5.6c-.2.5-.3.6-.1.9v1.5c.1.5.2.6.5.7l.4.1c-.1.1-.9.2-1 .1zm28.8-16.4c-3.5-.2-10-.8-10.2-1a120 120 0 0 1 17.7 1h-7.5zm-28.6-.8c-.3-.5-.5-1-.5-2l.1-1.2.3-.4c.1-.2.3-.3.7-.3h.2c-.4.3-.6 1-.6 2.2 0 1.1.2 1.6.6 1.6h.1c-.2.3-.7.3-.9 0zm81.7 35.6v-25.2l-.1-25h-19.8l-.5 1.6-1.9 6-10.2.1H106l-.1 2-.3 7.5-.1 5.5.3.7c.4.8.8 1 2.8 1.1 2 .1 2.4.3 2.9 1.2l.3.6V180h.6c1.2 0 1.4.3 1.3 3v2.2H131l17.5-.1zm-31-7.2c6.8-3.3 11-8.7 11-14.2 0-1.6-.3-3-1.2-6.5a35.7 35.7 0 0 1-1.7-10.4v-1.2l.1 1.1c.4 3.7.8 5.8 2 10 1.8 6 2 8.1.8 11.3a18.6 18.6 0 0 1-8.3 8.8 25 25 0 0 1-4.1 1.8l1.3-.7zm46.5 6.7.5-.5c.2-.3.5-.3 2.5-.4l2.2-.1V181l-.1-23v-20.7h-2.4c-2.4 0-2.4 0-2.9-.4-.5-.3-1-1.2-1-1.7v-.3h-13.2V180h5.1c5 0 5.2 0 5.6.3.8.5 1 .9 1 3v1.6h1.3c1.2 0 1.3 0 1.4-.3zm-1-2.6a10 10 0 0 1-1-2.3c-.6-2-.6-35 0-37.6.1-.9.7-2.2 1.2-2.7.3-.4.3-.4 0 .2l-.8 1.6c-.2 1-.2 1-.2 8.8v22c0 7.7 0 7.7.2 8.5l.6 1.2c.2.5.3.6 0 .3zm-.4-59.3c-.4-8.7-.6-11.2-.7-11.3l-.6-.1h-.4v11l-.1-5.5a32 32 0 0 0-.4-5.6h-1.1v11.6l-.1-5.8a22 22 0 0 0-.4-5.9l-.6-.1h-.5v5.7l.1 5.7-.2-5-.2-5.8v-.6h-1.2v5.4l.1 5.5-.2-5-.1-5.6c0-.4 0-.4-.7-.4h-.6v10.5l-.1-5-.2-5.3c0-.2-.2-.2-.7-.2h-.7v7.5l.1 7.5-.1-7.2-.2-7.5c0-.3-.1-.3-.7-.3h-.7v14.7l-.1-7.9c-.2-8.7-.1-8.2-1-8.2h-.4v15.3l-.2-7.6-.2-7.6h-1.2v16.7l-.2-6-.1-8.4v-2.3h-1.4v4.3a218.4 218.4 0 0 1-.3 2v-6.4H145l-.1 11.7V133l-.1-10.8-.1-11.7-.1-.9h-1.1l-.1 2.1a222.8 222.8 0 0 0-.2 3.6v-5.6h-1.4v.7l-.2 9-.1 8.3v-9l.1-9.1h-.6l-.7.2a294.3 294.3 0 0 0-.3 10V111h-1.5v7l-.2 3.7V111H137v1l-.2 6.1-.2 5.1V117l.1-6.1h-.6l-.7.1-.2 6.4-.2 6.2v-6.3l.1-6.4h-.6l-.7.1v1.5l-.2 6.5-.2 5v-6.5l.2-6.5h-.7a3 3 0 0 0-.6.1l-.3 6.8-.2 6.7.1-6.8v-6.7h-.4l-.7.1-.4 6.4-.2 6.3.1-6.3v-6.4h-.5l-.6.2-1 22.3c0 .1 3.6.2 17.4.2H163l-.4-11.2zm-12.8 9.8v-.2.4-.2zm3.3 0v-.2.4-.2zm-16.7 0v-.2.3-.2zm21.6-.6v-.4.8-.4zm1.6.3v-.2.5-.3zm-3.2-1v-.4.9-.5zm4.8-.2v-.3.8-.5zm-6.4-.4v-.3c.1.2.1.6 0 .8v-.5zm-11.6-4.9v-2.2a164.7 164.7 0 0 1 0 2.2zm-11.4 3v-.4.8-.4zm1.6-.7v-.4.9-.5zm4.9-2v-1.2a44.3 44.3 0 0 1 0 1.2zm-8 1.3v-.4 1-.6zm4.7-.1v-.5 1-.5zm1.6-.7v-.7 1.3-.6zm22.9-.4v-.7 1.4-.7zm-1.6-.8v-.7a16.3 16.3 0 0 1 0 .7zm3.1-.3c0-.9 0-1.3.1-.8a17.6 17.6 0 0 1 0 .8zm-4.7-.3v-.9a22.8 22.8 0 0 1 0 .9zm-1.6-.8v-1a30.5 30.5 0 0 1 0 1zm-23.4-13.3 4.8-.2c3.3-.1 3.4-.1 3.4-.4 0-.2.2-.4.4-.6.3-.3.5-.3 2.2-.4a134.2 134.2 0 0 1 9.4.3l.3.6v.4h3.4a94 94 0 0 1 6.8.4v-1.5a5.6 5.6 0 0 0-.6-2.3c-1.4-2.8-5.4-4-13.9-4.2-3 0-7.4.1-9.6.4-3.3.5-5.8 1.3-7 2.5-1 1-1.4 2-1.5 3.7-.1 1.7-.3 1.5 1.9 1.3zM208.5 235a4754 4754 0 0 0-12.5-.2h1.7l-.1-1.2a274.6 274.6 0 0 1-.1-13.6 731.1 731.1 0 0 0 .8 14.6c.1.1 19.1-.2 19.2-.3l.1-19.2c0-10.6.1-18 .2-16.7a1278 1278 0 0 1 .4 32.4l.1 3.5h4v-87a7430.9 7430.9 0 0 1 .5-106.6l.3 12.3c.2 11 .2 21.2.2 97.3v85h-3l-11.8-.3zm5.3-7.2a533 533 0 0 1 0-41.5l.6-12.5.1-5.3.1 3c.2 3.5 0 9-.3 16.3-.3 4.8-.3 7.7-.4 23 0 9.6 0 17.3-.1 17zm-30.4-24.2v-.5 1-.5zm34.1-10.3v-.2c.1.1.1.3 0 .4v-.2zm-3.1-26v-.3.7-.3zm-6.7-29.5v-.6l.1 1.2v-.6zm.2-15.3c.1-15.8.1-14.8-.2-40.8-.2-11-.3-21.8-.2-24 0-3.7 0-2.3.4 11.7.8 27.2.8 38.6.4 55.6-.4 12.3-.4 11.7-.4-2.5zm-28.3 6V117c0-9.2-.1-10-.7-12.5a17 17 0 0 0-1.2-3.4c.8 1 1.7 3.4 2.2 5.8.4 2.1.3 15.3-.1 23v1.5l-.2-2.7zm3.2-15.3c0-6.8.2-7.9 1.5-12.1 1-3.4 1.4-5 1.6-7.4V95c0 2.2-.2 3.1-1 6.2-1 3.7-1.3 5.2-1.7 11.6-.4 6.4-.5 6.5-.4.4zm-1.3-12.9-1-2.3c-1.2-2.5-1.3-2.9-1.1-3.9.3-1.4 1-2 2-1.7.6.1.8.3.6.6 0 .2-.2.2-.6 0-1-.2-1.5.4-1.5 1.9 0 .7 0 1 .7 2.6.9 2 1.1 2.8 1 3l-.1-.2zm.9-3.5c.3-.3.7-2 .8-3.1.1-1.9-.5-3.3-1.6-3.5-.4-.1-.5-.3 0-.3.8 0 1.9.9 2.1 1.9a7 7 0 0 1 0 2.9c-.1.6-.7 1.7-1 2-.2.3-.5.4-.3.1zm-6-6.3a35.8 35.8 0 0 1 3-14.2c.6-1 .9-1.3 1.4-1.6 1-.5 2 0 2.9 1.6.4.7 1 2.7 1 3.4 0 .6 0 .6-.2-.2-.3-1.3-1.1-3.1-1.7-3.8-.5-.5-.6-.6-1.1-.6-.4 0-.7 0-1 .3a37.3 37.3 0 0 0-4 14l-.3 2.2zm8.3-.2c-.7-4.1-2.4-7.1-3.5-6.3-.2 0-.6.7-1 1.4l-.5 1.1c0-.5.4-2 .7-2.5.4-.6 1-.9 1.6-.8.4 0 1.2.8 1.6 1.4a12 12 0 0 1 1.3 5.9v.9zm4-4.8-.8-9.5c-.8-7.7-1.1-12.4-1-13.4a144.6 144.6 0 0 1 2 25l-.2-2.1zm-12.9-8c0-.4 1-3.7 2-6.8a46 46 0 0 0 2.7-16.4l.3-4.9c.2-.5.2 7.2 0 9.6a37 37 0 0 1-3 13.4 166.8 166.8 0 0 0-2 5.2z"/>
</svg>
