<svg xmlns="http://www.w3.org/2000/svg" viewBox="0 0 1920 1080" width="1920" height="1080">
  <path fill="#000d17" d="M0 540V0h1920v1080H0Z"/>
  <path fill="#f2f2f2" d="m950.5 584-.7-31h26.6c25.2 0 26.6.1 26.6 1.8s1.1 2 14 2l14 .3V455l-2.5-1a793 793 0 0 0-52.6-1c-41-.2-50.4 0-51 1.2-.3.7-1 37.2-1.4 81l-.7 79.8h28.5zm-44.9 31.6.5-79.6.4-79.5h-13.7c-11 0-13.8.3-13.8 1.4 0 1.1-2.6 1.2-14.2.7-7.9-.3-26.6-.9-41.6-1.2l-27.2-.7.2 79.4c0 43.7.3 79.7.5 80 .2.6 108.4 0 109-.5z"/>
  <path fill="#000d17" d="m954.3 525.3-4.2-.4.6-21.7c.3-12 .7-21.9 1-22.1a394 394 0 0 1 43.7-.6l7.6.7v43.6l-3.1.6c-3.3.6-38.2.5-45.6-.1z"/>
  <path fill="#f2f2f2" d="M738.2 613.6c24.1-.7 44-1.5 44.3-1.8.3-.3.3-6.5-.1-13.8l-.7-13.3-25.6.7c-14 .3-30.8.9-37.2 1.2l-11.6.7-.6-8.4c-.4-4.6-.7-28-.7-52v-43.6l23.2-.6c12.8-.4 29.4-.7 36.8-.7h13.5v-27.5h-5.3l-50.8.3-45.7.2.8 79.8c.4 43.8 1.1 80 1.6 80.2.4.3 3.9.4 7.6.2l50.5-1.6z"/>
  <path fill="#000d17" d="M824 536.6v-51.4l15.3.4 27.6 1 12.4.6-.7 7.6c-.3 4.1-.6 26.8-.6 50.4V588h-54z"/>
  <path fill="#f2f2f2" d="M1217.6 546.8c-.4-40.9-1-76.9-1.2-80l-.6-5.8h-27l.6 73.3c.4 40.2 1 76.2 1.2 80l.6 6.7h27zm-80.9 77.2h29.3v-28h-73v-42.7l23.8-.5c13-.3 24-.1 24.2.3.3.4 6.4.9 13.7 1l13.1.4.4-51 .3-51h-13.8c-10.2 0-13.7.3-13.7 1.2 0 1-8 1.1-37.4.6l-37.4-.6-.4 13.4c-.2 7.4-.2 13.7 0 14.1.2.5 12.4.8 27.1.8 14.7 0 31.6.3 37.4.7l10.7.6V525h-24c-15.3 0-24-.4-24-1s-5.3-1-14-1c-12.4 0-14 .2-14.3 1.7-.4 1.5-.2 97.1.2 99.7 0 .5 8.8.6 21.3.3 11.6-.4 34.3-.7 50.5-.7z"/>
</svg>
